Assignment 4
…
## # A tibble: 30 x 4
## # Groups:   SITE, YEAR [30]
##    SITE   YEAR COUNT MPA   
##    <chr> <int> <int> <chr> 
##  1 AQUE   2012    38 No MPA
##  2 CARP   2012    78 No MPA
##  3 IVEE   2012    26 MPA   
##  4 MOHK   2012    83 No MPA
##  5 NAPL   2012     6 MPA   
##  6 AQUE   2013    32 No MPA
##  7 CARP   2013    93 No MPA
##  8 IVEE   2013    40 MPA   
##  9 MOHK   2013    15 No MPA
## 10 NAPL   2013    63 MPA   
## # ... with 20 more rows
…
